<?xml version="1.0" encoding="UTF-8"?>
<robot generator="Robot 3.0.4 (Python 3.7.0 on win32)" generated="20190108 13:56:37.658">
<suite id="s1" name="Rest Demo" source="C:\Users\petri.ryynanen\git\Robot_Framework_Training\Robot_Framework_Training\Training\Tests\Rest_Demo.robot">
<test id="s1-t1" name="Get test">
<kw name="Create Session" library="RequestsLibrary">
<doc>Create Session: create a HTTP session to a server</doc>
<arguments>
<arg>getSession</arg>
<arg>${url}</arg>
<arg>verify=true</arg>
</arguments>
<msg timestamp="20190108 13:56:37.776" level="INFO">Creating Session using : alias=getSession, url=https://reqres.in, headers={},                     cookies=None, auth=None, timeout=None, proxies=None, verify=true,                     debug=0 </msg>
<status status="PASS" starttime="20190108 13:56:37.775" endtime="20190108 13:56:37.777"></status>
</kw>
<kw name="Get Request" library="RequestsLibrary">
<doc>Send a GET request on the session object found using the</doc>
<arguments>
<arg>getSession</arg>
<arg>${uri}</arg>
</arguments>
<assign>
<var>${response}</var>
</assign>
<msg timestamp="20190108 13:56:38.292" level="INFO">Get Request using : alias=getSession, uri=/api/users?page=2, headers=None json=None</msg>
<msg timestamp="20190108 13:56:38.293" level="INFO">${response} = &lt;Response [200]&gt;</msg>
<status status="PASS" starttime="20190108 13:56:37.779" endtime="20190108 13:56:38.293"></status>
</kw>
<kw name="Log" library="BuiltIn">
<doc>Logs the given message with the given level.</doc>
<arguments>
<arg>${response.status_code}</arg>
</arguments>
<msg timestamp="20190108 13:56:38.296" level="INFO">200</msg>
<status status="PASS" starttime="20190108 13:56:38.294" endtime="20190108 13:56:38.296"></status>
</kw>
<kw name="Log" library="BuiltIn">
<doc>Logs the given message with the given level.</doc>
<arguments>
<arg>${response.text}</arg>
</arguments>
<msg timestamp="20190108 13:56:38.298" level="INFO">{"page":2,"per_page":3,"total":12,"total_pages":4,"data":[{"id":4,"first_name":"Eve","last_name":"Holt","avatar":"https://s3.amazonaws.com/uifaces/faces/twitter/marcoramires/128.jpg"},{"id":5,"first_name":"Charles","last_name":"Morris","avatar":"https://s3.amazonaws.com/uifaces/faces/twitter/stephenmoon/128.jpg"},{"id":6,"first_name":"Tracey","last_name":"Ramos","avatar":"https://s3.amazonaws.com/uifaces/faces/twitter/bigmancho/128.jpg"}]}</msg>
<status status="PASS" starttime="20190108 13:56:38.297" endtime="20190108 13:56:38.299"></status>
</kw>
<kw name="Should Be Equal As Strings" library="BuiltIn">
<doc>Fails if objects are unequal after converting them to strings.</doc>
<arguments>
<arg>${response.text}</arg>
<arg>${expected_response}</arg>
</arguments>
<status status="PASS" starttime="20190108 13:56:38.300" endtime="20190108 13:56:38.301"></status>
</kw>
<kw name="Should Be Equal As Strings" library="BuiltIn">
<doc>Fails if objects are unequal after converting them to strings.</doc>
<arguments>
<arg>${response.status_code}</arg>
<arg>${expected_response_code}</arg>
</arguments>
<msg timestamp="20190108 13:56:38.304" level="INFO">Argument types are:
&lt;class 'int'&gt;
&lt;type 'unicode'&gt;</msg>
<status status="PASS" starttime="20190108 13:56:38.303" endtime="20190108 13:56:38.305"></status>
</kw>
<kw name="To Json" library="RequestsLibrary">
<doc>Convert a string to a JSON object</doc>
<arguments>
<arg>${response.text}</arg>
<arg>true</arg>
</arguments>
<assign>
<var>${pretty_printed_response}</var>
</assign>
<msg timestamp="20190108 13:56:38.307" level="INFO">To JSON using : content={"page":2,"per_page":3,"total":12,"total_pages":4,"data":[{"id":4,"first_name":"Eve","last_name":"Holt","avatar":"https://s3.amazonaws.com/uifaces/faces/twitter/marcoramires/128.jpg"},{"id":5,"first_name":"Charles","last_name":"Morris","avatar":"https://s3.amazonaws.com/uifaces/faces/twitter/stephenmoon/128.jpg"},{"id":6,"first_name":"Tracey","last_name":"Ramos","avatar":"https://s3.amazonaws.com/uifaces/faces/twitter/bigmancho/128.jpg"}]} </msg>
<msg timestamp="20190108 13:56:38.308" level="INFO">To JSON using : pretty_print=true </msg>
<msg timestamp="20190108 13:56:38.308" level="INFO">${pretty_printed_response} = {
    "data": [
        {
            "avatar": "https://s3.amazonaws.com/uifaces/faces/twitter/marcoramires/128.jpg",
            "first_name": "Eve",
            "id": 4,
            "last_name": "H...</msg>
<status status="PASS" starttime="20190108 13:56:38.306" endtime="20190108 13:56:38.308"></status>
</kw>
<kw name="Log" library="BuiltIn">
<doc>Logs the given message with the given level.</doc>
<arguments>
<arg>${pretty_printed_response}</arg>
</arguments>
<msg timestamp="20190108 13:56:38.309" level="INFO">{
    "data": [
        {
            "avatar": "https://s3.amazonaws.com/uifaces/faces/twitter/marcoramires/128.jpg",
            "first_name": "Eve",
            "id": 4,
            "last_name": "Holt"
        },
        {
            "avatar": "https://s3.amazonaws.com/uifaces/faces/twitter/stephenmoon/128.jpg",
            "first_name": "Charles",
            "id": 5,
            "last_name": "Morris"
        },
        {
            "avatar": "https://s3.amazonaws.com/uifaces/faces/twitter/bigmancho/128.jpg",
            "first_name": "Tracey",
            "id": 6,
            "last_name": "Ramos"
        }
    ],
    "page": 2,
    "per_page": 3,
    "total": 12,
    "total_pages": 4
}</msg>
<status status="PASS" starttime="20190108 13:56:38.309" endtime="20190108 13:56:38.309"></status>
</kw>
<status status="PASS" starttime="20190108 13:56:37.772" endtime="20190108 13:56:38.309" critical="yes"></status>
</test>
<status status="PASS" starttime="20190108 13:56:37.661" endtime="20190108 13:56:38.311"></status>
</suite>
<statistics>
<total>
<stat pass="1" fail="0">Critical Tests</stat>
<stat pass="1" fail="0">All Tests</stat>
</total>
<tag>
</tag>
<suite>
<stat pass="1" fail="0" id="s1" name="Rest Demo">Rest Demo</stat>
</suite>
</statistics>
<errors>
</errors>
</robot>
